<?xml version="1.0" encoding="UTF-8" standalone="no"?>
<svg
   xmlns:svg="http://www.w3.org/2000/svg"
   xmlns="http://www.w3.org/2000/svg"
   version="1.1"
   viewBox="0 0 55 52"
   id="svg2">
  <path
     d="M 10.3,49.222 C 3.95,49.192 1.04,45.037 3.82,39.99 c 0,0 18.32,-33.17 18.32,-33.17 2.78,-5.05 7.38,-5.06 10.22,0 0,0 18.92,33.507 18.92,33.507 2.84,5.029 0,9.122 -6.37,9.092 0,0 -34.61,-0.157 -34.61,-0.157 z"
     style="fill:#ffffff"
     id="path6" />
  <path
     d="M 10.3,49.222 C 3.95,49.192 1.04,45.037 3.82,39.99 c 0,0 18.32,-33.17 18.32,-33.17 2.78,-5.05 7.38,-5.06 10.22,0 0,0 18.92,33.507 18.92,33.507 2.84,5.029 0,9.122 -6.37,9.092 0,0 -34.61,-0.157 -34.61,-0.157 z"
     style="fill:none;stroke:#000000;stroke-width:4.523"
     id="path8" />
  <path
     d="m 28.6,30.043 c -1,-0.706 -1.23,-2.136 -0.52,-3.124 0.7,-0.991 2.13,-1.232 3.12,-0.525 0.99,0.705 1.23,2.137 0.53,3.129 -0.71,0.989 -2.14,1.228 -3.13,0.52 z m -4.97,6.968 c -0.99,-0.706 -1.23,-2.137 -0.53,-3.126 0.71,-0.99 2.14,-1.233 3.13,-0.522 0.99,0.705 1.23,2.137 0.52,3.125 -0.7,0.989 -2.14,1.23 -3.12,0.523 z"
     id="path10" />
  <path
     d="m 31.55,44.951 c -0.34,-2.935 -0.23,-5.846 2.01,-8.973 2.24,-3.148 4.83,-4.247 7.91,-4.922 0,0 0.76,2.124 0.76,2.124 -2.29,0.696 -4.35,1.869 -6.19,4.441 -1.88,2.641 -2.33,4.94 -2.23,7.365 0,0 -2.26,-0.04 -2.26,-0.04 z"
     id="path12" />
  <path
     d="m 15.12,32.588 c 0,0 2.18,-3.471 2.18,-3.471 0,0 5.6,-0.507 5.6,-0.507 0,0 -1.95,-5.284 -1.95,-5.284 0,0 2.2,-3.491 2.2,-3.491 0,0 3.26,9.638 3.26,9.638 0,0 -1.2,1.894 -1.2,1.894 0,0 -10.09,1.221 -10.09,1.221 z"
     id="path14" />
</svg>
